…
I called the data set and used the **glimpse** function in order to have
an idea of the variables names and type.I have experience in the
molecular oncology of breast cancer research, but this dataset has
variables related to the phyisical characteristics of the tumor tissue,
and I considered that to have a research question answered I would need
to make correlations analysis, which I have not learned yet. Thus, I
discarded this option.

``` r
### EXPLORE HERE ###
cancer_sample
```

    ## # A tibble: 569 × 32
    ##          ID diagnosis radius_m…¹ textu…² perim…³ area_…⁴ smoot…⁵ compa…⁶ conca…⁷
    ##       <dbl> <chr>          <dbl>   <dbl>   <dbl>   <dbl>   <dbl>   <dbl>   <dbl>
    ##  1   842302 M               18.0    10.4   123.    1001   0.118   0.278   0.300 
    ##  2   842517 M               20.6    17.8   133.    1326   0.0847  0.0786  0.0869
    ##  3 84300903 M               19.7    21.2   130     1203   0.110   0.160   0.197 
    ##  4 84348301 M               11.4    20.4    77.6    386.  0.142   0.284   0.241 
    ##  5 84358402 M               20.3    14.3   135.    1297   0.100   0.133   0.198 
    ##  6   843786 M               12.4    15.7    82.6    477.  0.128   0.17    0.158 
    ##  7   844359 M               18.2    20.0   120.    1040   0.0946  0.109   0.113 
    ##  8 84458202 M               13.7    20.8    90.2    578.  0.119   0.164   0.0937
    ##  9   844981 M               13      21.8    87.5    520.  0.127   0.193   0.186 
    ## 10 84501001 M               12.5    24.0    84.0    476.  0.119   0.240   0.227 
    ## # … with 559 more rows, 23 more variables: concave_points_mean <dbl>,
    ## #   symmetry_mean <dbl>, fractal_dimension_mean <dbl>, radius_se <dbl>,
    ## #   texture_se <dbl>, perimeter_se <dbl>, area_se <dbl>, smoothness_se <dbl>,
    ## #   compactness_se <dbl>, concavity_se <dbl>, concave_points_se <dbl>,
    ## #   symmetry_se <dbl>, fractal_dimension_se <dbl>, radius_worst <dbl>,
    ## #   texture_worst <dbl>, perimeter_worst <dbl>, area_worst <dbl>,
    ## #   smoothness_worst <dbl>, compactness_worst <dbl>, concavity_worst <dbl>, …
…
## Exploring vancouver_trees dataset

I called the data set and used the **glimpse** function in order to have
an idea of the variables names and type.I found this dataset not related
to my research area, but with a diversity of variables that might be
interesting for formulating research questions.

``` r
### EXPLORE HERE ###
vancouver_trees
```

    ## # A tibble: 146,611 × 20
    ##    tree_id civic_number std_st…¹ genus…² speci…³ culti…⁴ commo…⁵ assig…⁶ root_…⁷
    ##      <dbl>        <dbl> <chr>    <chr>   <chr>   <chr>   <chr>   <chr>   <chr>  
    ##  1  149556          494 W 58TH … ULMUS   AMERIC… BRANDON BRANDO… N       N      
    ##  2  149563          450 W 58TH … ZELKOVA SERRATA <NA>    JAPANE… N       N      
    ##  3  149579         4994 WINDSOR… STYRAX  JAPONI… <NA>    JAPANE… N       N      
    ##  4  149590          858 E 39TH … FRAXIN… AMERIC… AUTUMN… AUTUMN… Y       N      
    ##  5  149604         5032 WINDSOR… ACER    CAMPES… <NA>    HEDGE … N       N      
    ##  6  149616          585 W 61ST … PYRUS   CALLER… CHANTI… CHANTI… N       N      
    ##  7  149617         4909 SHERBRO… ACER    PLATAN… COLUMN… COLUMN… N       N      
    ##  8  149618         4925 SHERBRO… ACER    PLATAN… COLUMN… COLUMN… N       N      
    ##  9  149619         4969 SHERBRO… ACER    PLATAN… COLUMN… COLUMN… N       N      
    ## 10  149625          720 E 39TH … FRAXIN… AMERIC… AUTUMN… AUTUMN… N       N      
    ## # … with 146,601 more rows, 11 more variables: plant_area <chr>,
    ## #   on_street_block <dbl>, on_street <chr>, neighbourhood_name <chr>,
    ## #   street_side_name <chr>, height_range_id <dbl>, diameter <dbl>, curb <chr>,
    ## #   date_planted <date>, longitude <dbl>, latitude <dbl>, and abbreviated
    ## #   variable names ¹​std_street, ²​genus_name, ³​species_name, ⁴​cultivar_name,
    ## #   ⁵​common_name, ⁶​assigned, ⁷​root_barrier
…
## Exploring flow_sample dataset

I called the data set and used the **glimpse** function in order to have
an idea of the variables names and type.This is a dataset not related to
my research area as well, but it´s small size could be helpful to start
learning about datasets analysis.

``` r
### EXPLORE HERE ###
flow_sample
```

    ## # A tibble: 218 × 7
    ##    station_id  year extreme_type month   day  flow sym  
    ##    <chr>      <dbl> <chr>        <dbl> <dbl> <dbl> <chr>
    ##  1 05BB001     1909 maximum          7     7   314 <NA> 
    ##  2 05BB001     1910 maximum          6    12   230 <NA> 
    ##  3 05BB001     1911 maximum          6    14   264 <NA> 
    ##  4 05BB001     1912 maximum          8    25   174 <NA> 
    ##  5 05BB001     1913 maximum          6    11   232 <NA> 
    ##  6 05BB001     1914 maximum          6    18   214 <NA> 
    ##  7 05BB001     1915 maximum          6    27   236 <NA> 
    ##  8 05BB001     1916 maximum          6    20   309 <NA> 
    ##  9 05BB001     1917 maximum          6    17   174 <NA> 
    ## 10 05BB001     1918 maximum          6    15   345 <NA> 
    ## # … with 208 more rows
…
## Exploring apt_buildings dataset

I called the data set and used the **glimpse** function in order to have
an idea of the variables names and type.I discarded this dataset due to
the reason that I saw many missing data and complex answers for the
variables.

``` r
### EXPLORE HERE ###
apt_buildings
```

    ## # A tibble: 3,455 × 37
    ##       id air_c…¹ ameni…² balco…³ barri…⁴ bike_…⁵ exter…⁶ fire_…⁷ garba…⁸ heati…⁹
    ##    <dbl> <chr>   <chr>   <chr>   <chr>   <chr>   <chr>   <chr>   <chr>   <chr>  
    ##  1 10359 NONE    Outdoo… YES     YES     0 indo… NO      YES     YES     HOT WA…
    ##  2 10360 NONE    Outdoo… YES     NO      0 indo… NO      YES     YES     HOT WA…
    ##  3 10361 NONE    <NA>    YES     NO      Not Av… NO      YES     NO      HOT WA…
    ##  4 10362 NONE    <NA>    YES     YES     Not Av… YES     YES     NO      HOT WA…
    ##  5 10363 NONE    <NA>    NO      NO      12 ind… NO      YES     NO      HOT WA…
    ##  6 10364 NONE    <NA>    NO      NO      Not Av… <NA>    YES     NO      HOT WA…
    ##  7 10365 NONE    <NA>    NO      YES     Not Av… NO      YES     NO      HOT WA…
    ##  8 10366 CENTRA… Indoor… YES     NO      Not Av… NO      YES     YES     HOT WA…
    ##  9 10367 NONE    <NA>    YES     YES     0 indo… NO      YES     YES     ELECTR…
    ## 10 10368 NONE    Indoor… YES     YES     Not Av… NO      YES     NO      HOT WA…
    ## # … with 3,445 more rows, 27 more variables: intercom <chr>,
    ## #   laundry_room <chr>, locker_or_storage_room <chr>, no_of_elevators <dbl>,
    ## #   parking_type <chr>, pets_allowed <chr>, prop_management_company_name <chr>,
    ## #   property_type <chr>, rsn <dbl>, separate_gas_meters <chr>,
    ## #   separate_hydro_meters <chr>, separate_water_meters <chr>,
    ## #   site_address <chr>, sprinkler_system <chr>, visitor_parking <chr>,
    ## #   ward <chr>, window_type <chr>, year_built <dbl>, year_registered <dbl>, …
…
``` r
vancouver_trees %>%
  mutate(HDR = height_range_id * diameter) %>%
  select(tree_id, HDR, height_range_id, diameter)
```

    ## # A tibble: 146,611 × 4
    ##    tree_id   HDR height_range_id diameter
    ##      <dbl> <dbl>           <dbl>    <dbl>
    ##  1  149556    20               2     10  
    ##  2  149563    40               4     10  
    ##  3  149579    12               3      4  
    ##  4  149590    72               4     18  
    ##  5  149604    18               2      9  
    ##  6  149616    10               2      5  
    ##  7  149617    45               3     15  
    ##  8  149618    42               3     14  
    ##  9  149619    32               2     16  
    ## 10  149625    15               2      7.5
    ## # … with 146,601 more rows
…
``` r
vancouver_trees %>% 
  filter(neighbourhood_name == "KITSILANO") %>% 
  select(neighbourhood_name, species_name, diameter)
```

    ## # A tibble: 8,115 × 3
    ##    neighbourhood_name species_name  diameter
    ##    <chr>              <chr>            <dbl>
    ##  1 KITSILANO          CERASIFERA        10  
    ##  2 KITSILANO          AMERICANA         14.5
    ##  3 KITSILANO          FREEMANI   X       3  
    ##  4 KITSILANO          RUBRUM            16  
    ##  5 KITSILANO          BIGNONIOIDES      30  
    ##  6 KITSILANO          ROBUR             18  
    ##  7 KITSILANO          PENNSYLVANICA     14  
    ##  8 KITSILANO          PENNSYLVANICA     17.8
    ##  9 KITSILANO          CAMPESTRE         10  
    ## 10 KITSILANO          AMERICANA         10  
    ## # … with 8,105 more rows
…
I computed the following summary statistics: mean, median, minimum and
maximum. This task could help to have a broader information about the
diameter of the trees in Vancouver according to each neighborhood.

``` r
vancouver_trees %>%
  group_by(neighbourhood_name) %>%
  summarise(range(diameter), mean(diameter), median(diameter), min(diameter), max(diameter))
```

    ## `summarise()` has grouped output by 'neighbourhood_name'. You can override
    ## using the `.groups` argument.

    ## # A tibble: 44 × 6
    ## # Groups:   neighbourhood_name [22]
    ##    neighbourhood_name `range(diameter)` `mean(diameter)` media…¹ min(d…² max(d…³
    ##    <chr>                          <dbl>            <dbl>   <dbl>   <dbl>   <dbl>
    ##  1 ARBUTUS-RIDGE                   0               11.9     10      0         62
    ##  2 ARBUTUS-RIDGE                  62               11.9     10      0         62
    ##  3 DOWNTOWN                        1                7.45     6      1        151
    ##  4 DOWNTOWN                      151                7.45     6      1        151
    ##  5 DUNBAR-SOUTHLANDS               0               13.9     12      0        305
    ##  6 DUNBAR-SOUTHLANDS             305               13.9     12      0        305
    ##  7 FAIRVIEW                        1.25            10.6      9      1.25      99
    ##  8 FAIRVIEW                       99               10.6      9      1.25      99
    ##  9 GRANDVIEW-WOODLAND              0               11.4      8.5    0         63
    ## 10 GRANDVIEW-WOODLAND             63               11.4      8.5    0         63
    ## # … with 34 more rows, and abbreviated variable names ¹​`median(diameter)`,
    ## #   ²​`min(diameter)`, ³​`max(diameter)`
…
``` r
vancouver_trees %>% 
  filter(neighbourhood_name == "KITSILANO") %>% 
  count (species_name) %>%
  arrange(desc(n))
```

    ## # A tibble: 171 × 2
    ##    species_name      n
    ##    <chr>         <int>
    ##  1 PLATANOIDES    1188
    ##  2 SERRULATA       559
    ##  3 CERASIFERA      435
    ##  4 EUCHLORA   X    432
    ##  5 RUBRUM          315
    ##  6 KOBUS           289
    ##  7 HIPPOCASTANUM   277
    ##  8 ROBUR           263
    ##  9 AMERICANA       260
    ## 10 SYLVATICA       246
    ## # … with 161 more rows
…
